<?xml version="1.0" encoding="UTF-8" standalone="no"?>
<svg xmlns="http://www.w3.org/2000/svg" xmlns:xlink="http://www.w3.org/1999/xlink" contentStyleType="text/css" height="198px" preserveAspectRatio="none" style="width:294px;height:198px;background:#FFFFFF;" version="1.1" viewBox="0 0 294 198" width="294px" zoomAndPan="magnify"><defs/><g><g id="elem_BobNet"><rect fill="#F1F1F1" height="60.8906" style="stroke:#181818;stroke-width:0.5;" width="134" x="7" y="131"/><text fill="#000000" font-family="sans-serif" font-size="14" lengthAdjust="spacing" textLength="55" x="46.5" y="145.9951">BobNet</text><line style="stroke:#181818;stroke-width:0.5;" x1="8" x2="140" y1="151.2969" y2="151.2969"/><text fill="#000000" font-family="sans-serif" font-size="14" lengthAdjust="spacing" textLength="106" x="13" y="168.292">Intercon: none</text><text fill="#000000" font-family="sans-serif" font-size="14" lengthAdjust="spacing" textLength="122" x="13" y="184.5889">Interop: Alicetec</text></g><g id="elem_ClaireNet"><rect fill="#F1F1F1" height="60.8906" style="stroke:#181818;stroke-width:0.5;" width="111" x="176.5" y="131"/><text fill="#000000" font-family="sans-serif" font-size="14" lengthAdjust="spacing" textLength="67" x="198.5" y="145.9951">ClaireNet</text><line style="stroke:#181818;stroke-width:0.5;" x1="177.5" x2="286.5" y1="151.2969" y2="151.2969"/><text fill="#000000" font-family="sans-serif" font-size="14" lengthAdjust="spacing" textLength="94" x="182.5" y="168.292">Intercon: yes</text><text fill="#000000" font-family="sans-serif" font-size="14" lengthAdjust="spacing" textLength="99" x="182.5" y="184.5889">Interop: none</text></g><g id="elem_AliceNet"><rect fill="#F1F1F1" height="60.8906" style="stroke:#181818;stroke-width:0.5;" width="139" x="82.5" y="7"/><text fill="#000000" font-family="sans-serif" font-size="14" lengthAdjust="spacing" textLength="61" x="121.5" y="21.9951">AliceNet</text><line style="stroke:#181818;stroke-width:1.0;" x1="82.5" x2="221.5" y1="27.2969" y2="27.2969"/><text fill="#000000" font-family="sans-serif" font-size="14" lengthAdjust="spacing" textLength="94" x="105" y="42.292">Intercon: yes</text><line style="stroke:#181818;stroke-width:1.0;" x1="82.5" x2="221.5" y1="47.5938" y2="47.5938"/><text fill="#000000" font-family="sans-serif" font-size="14" lengthAdjust="spacing" textLength="122" x="91" y="62.5889">Interop: Alicetec</text></g><!--MD5=[f6aa0e57d10c0496df9daa2425370da9]
link AliceNet to ClaireNet--><g id="link_AliceNet_ClaireNet"><path d="M223,37 C258.755,37 251.85,89.129 242.624,125.6514 " fill="none" id="AliceNet-to-ClaireNet" style="stroke:#181818;stroke-width:1.0;"/><polygon fill="#181818" points="241.251,130.9187,247.3926,123.2193,242.5127,126.0805,239.6515,121.2006,241.251,130.9187" style="stroke:#181818;stroke-width:1.0;"/></g><!--MD5=[1fa34d265b37be4ffe965960e07e3bd2]
link AliceNet to BobNet--><g id="link_AliceNet_BobNet"><path d="M82,57 C53.8042,57 57.0831,95.6551 63.8971,125.7188 " fill="none" id="AliceNet-to-BobNet" style="stroke:#181818;stroke-width:1.0;"/><polygon fill="#181818" points="65.1097,130.8411,66.9287,121.1617,63.9578,125.9756,59.1439,123.0047,65.1097,130.8411" style="stroke:#181818;stroke-width:1.0;"/></g><!--MD5=[e807b6a194ddc6684dad0993785aa2a9]
@startuml
object BobNet{
  Intercon: none
  Interop: Alicetec
}
object ClaireNet{
  Intercon: yes 
  Interop: none
}

map AliceNet{
  Intercon: yes *- -> ClaireNet
  Interop: Alicetec *- -> BobNet
}
@enduml

PlantUML version 1.2022.7beta1(Unknown compile time)
(GPL source distribution)
Java Runtime: Java(TM) SE Runtime Environment
JVM: Java HotSpot(TM) 64-Bit Server VM
Default Encoding: UTF-8
Language: en
Country: US
--></g></svg>